{
  "name": "__network-location-name__",
  "location": "__location__",
  "tags": "",
  "is_hub": "__is-hub__",
  "profile_id": null,
  "user_id": "__user-id__",
  "enable_mac_filtering": false,
  "dns_proxy_id": null,
  "dns_proxy_enable": false,
  "snmp_mapping_id": null,
  "snmp_config_enable": false,
  "auto_upgrade": false,
  "dataplane_feature_profile_enable": false,
  "dataplane_feature_profile_id": null,
  "site_groups": []
}