{
  "master_username": "master@cloudstation.io",
  "master_password": "qwertysdg@#/qe",
  "cloud-station": {
    "host-name": "172.11.35.15",
    "username": "lavelle",
    "password": "lavelle@3163"
  },
  "insights": {
    "host-name": "172.11.35.14",
    "username": "lavelle",
    "password": "lavelle@3163"
  },
  "cp-details": [
    {
      "host-name": "172.11.35.16",
      "user-name": "lavelle",
      "password": "lavelle@3163",
      "serial-number": 121212,
      "model-number": "",
      "hub": true,
      "location": "Hassan Karnataka India",
      "interface": {
        "lan": {
          "port": "eth0",
          "addresses" : [
            {
              "ip": "10.117.50.1",
              "is_primary": "yes",
              "prefix_length": 24,
              "primary": true
            }
          ]
        },
        "wan": {}
      },
      "host": {
        "name": "hub",
        "ip": "172.11.35.21",
        "username": "lavelle",
        "password": "lavelle@3163"
      }
    },
    {
      "host-name": "172.11.35.17",
      "user-name": "lavelle",
      "password": "lavelle@3163",
      "serial-number": 232323,
      "model-number": "",
      "hub": false,
      "location": "Mysore Karnataka India",
      "interface": {
        "lan": {
          "port": "eth0",
          "addresses" : [
            {
              "ip": "10.117.51.1",
              "is_primary": "yes",
              "prefix_length": 24,
              "primary": true
            }
          ]
        },
        "wan": {}
      },
      "host": {
        "name": "spoke-1",
        "ip": "172.11.35.22",
        "username": "lavelle",
        "password": "lavelle@3163"
      }
    }
  ],
  "domain": "cloudstation.io",
  "url_prefix": "qa-raksi"

}